R am IAB - 3 Einen Überblick erhalten
…
Hier ist count() informativer als table(). Hier werden die Labels verwendet. Der Übersichtlichkeit halber verwende ich meistens count(), auch wenn das long shape Format etwas gewöhnungsbedürftig ist.

3.4.1 Übung

Bei langen Tabellen gibt count() nicht alle Zeilen aus

Bei langen Tabellen werden nicht alle Werte ausgegeben, sondern nur die ersten Zeilen. Um hier alle Werte zu bekommen, hilft print(n=Inf):

pend %>% count(palter) # wird abgeschnitten

# A tibble: 84 × 2
   palter                n
   <dbl+lbl>         <int>
 1 -2 [Keine Angabe]    60
 2 14                    1
 3 15                  271
 4 16                  308
 5 17                  276
 6 18                  282
 7 19                  266
 8 20                  296
 9 21                  282
10 22                  330
# … with 74 more rows
…
